%YAML 1.1
%TAG !u! tag:unity3d.com,2011:
--- !u!114 &11400000
MonoBehaviour:
  m_ObjectHideFlags: 0
  m_CorrespondingSourceObject: {fileID: 0}
  m_PrefabInstance: {fileID: 0}
  m_PrefabAsset: {fileID: 0}
  m_GameObject: {fileID: 0}
  m_Enabled: 1
  m_EditorHideFlags: 0
  m_Script: {fileID: 11500000, guid: f01753e20cd5a164992d8c4b825fbd1f, type: 3}
  m_Name: Ability5
  m_EditorClassIdentifier: 
  itemID: a19c3bee-6c7e-4a73-9def-d7251f5332d6
  animationTrigger: Ability5
