%YAML 1.1
%TAG !u! tag:unity3d.com,2011:
--- !u!221 &22100000
AnimatorOverrideController:
  m_ObjectHideFlags: 0
  m_CorrespondingSourceObject: {fileID: 0}
  m_PrefabInstance: {fileID: 0}
  m_PrefabAsset: {fileID: 0}
  m_Name: 2Hand-Sword-Attack8
  m_Controller: {fileID: 9100000, guid: c706068bc9bc948428d509d90eb07543, type: 2}
  m_Clips:
  - m_OriginalClip: {fileID: 7400000, guid: 393274f3704ac8a49adb190785ca48db, type: 3}
    m_OverrideClip: {fileID: 7400000, guid: 5c0b1be3522a16f4c8519b02a90a980d, type: 3}
  - m_OriginalClip: {fileID: 7400000, guid: 95dc4fbaa01379f4f908847fb44054d4, type: 3}
    m_OverrideClip: {fileID: 7400000, guid: 05576006da3e02b49b96abc065d9f607, type: 3}
  - m_OriginalClip: {fileID: 7400000, guid: a7e98d51bd73b0348b47acf6a9f02766, type: 3}
    m_OverrideClip: {fileID: 7400000, guid: 0000872662c8fb241bf2ab6cc00dd461, type: 3}
  - m_OriginalClip: {fileID: 7400000, guid: 812f2cd37fa510d44b9f9fea481de77d, type: 3}
    m_OverrideClip: {fileID: 7400000, guid: 0000872662c8fb241bf2ab6cc00dd461, type: 3}
