%YAML 1.1
%TAG !u! tag:unity3d.com,2011:
--- !u!114 &11400000
MonoBehaviour:
  m_ObjectHideFlags: 0
  m_CorrespondingSourceObject: {fileID: 0}
  m_PrefabInstance: {fileID: 0}
  m_PrefabAsset: {fileID: 0}
  m_GameObject: {fileID: 0}
  m_Enabled: 1
  m_EditorHideFlags: 0
  m_Script: {fileID: 11500000, guid: 0ce98fcae6ff6a141aa89d1eee09db74, type: 3}
  m_Name: Skeletons
  m_EditorClassIdentifier: 
  potentialNames:
  - Lumbar
  - Cervial
  - Sternum
  - Ribs
  - Occipital
  - Sphenoid
  - Maxillae
  - Humerus
  - Ulna
  - Carpal
  - Hamate
  - Pisiform
  - Phalange
  - Femer
  - Tibia
  - Fibula
  - Tarsus
