%YAML 1.1
%TAG !u! tag:unity3d.com,2011:
--- !u!1 &426402413210516364
GameObject:
  m_ObjectHideFlags: 0
  m_CorrespondingSourceObject: {fileID: 0}
  m_PrefabInstance: {fileID: 0}
  m_PrefabAsset: {fileID: 0}
  serializedVersion: 6
  m_Component:
  - component: {fileID: 712160868216581400}
  - component: {fileID: 7215464991670029931}
  m_Layer: 0
  m_Name: MouseOverUI
  m_TagString: Untagged
  m_Icon: {fileID: 0}
  m_NavMeshLayer: 0
  m_StaticEditorFlags: 0
  m_IsActive: 1
--- !u!4 &712160868216581400
Transform:
  m_ObjectHideFlags: 0
  m_CorrespondingSourceObject: {fileID: 0}
  m_PrefabInstance: {fileID: 0}
  m_PrefabAsset: {fileID: 0}
  m_GameObject: {fileID: 426402413210516364}
  m_LocalRotation: {x: 0, y: 0, z: 0, w: 1}
  m_LocalPosition: {x: 246.8749, y: 340.10983, z: 80.19365}
  m_LocalScale: {x: 1, y: 1, z: 1}
  m_Children:
  - {fileID: 8916671680420596441}
  m_Father: {fileID: 0}
  m_RootOrder: 0
  m_LocalEulerAnglesHint: {x: 0, y: 0, z: 0}
--- !u!114 &7215464991670029931
MonoBehaviour:
  m_ObjectHideFlags: 0
  m_CorrespondingSourceObject: {fileID: 0}
  m_PrefabInstance: {fileID: 0}
  m_PrefabAsset: {fileID: 0}
  m_GameObject: {fileID: 426402413210516364}
  m_Enabled: 1
  m_EditorHideFlags: 0
  m_Script: {fileID: 11500000, guid: c69da4209e37aca4c8ba32e33887fa88, type: 3}
  m_Name: 
  m_EditorClassIdentifier: 
  canvas: {fileID: 1105516664052374395}
  title: {fileID: 6914399695444524637}
  text: {fileID: 2209131133759903296}
  image: {fileID: 7923344962759906345}
--- !u!1 &1075443708114866625
GameObject:
  m_ObjectHideFlags: 0
  m_CorrespondingSourceObject: {fileID: 0}
  m_PrefabInstance: {fileID: 0}
  m_PrefabAsset: {fileID: 0}
  serializedVersion: 6
  m_Component:
  - component: {fileID: 6283702868620723904}
  - component: {fileID: 380759997034901954}
  - component: {fileID: 6422302126489952227}
  m_Layer: 0
  m_Name: Layout
  m_TagString: Untagged
  m_Icon: {fileID: 0}
  m_NavMeshLayer: 0
  m_StaticEditorFlags: 0
  m_IsActive: 1
--- !u!224 &6283702868620723904
RectTransform:
  m_ObjectHideFlags: 0
  m_CorrespondingSourceObject: {fileID: 0}
  m_PrefabInstance: {fileID: 0}
  m_PrefabAsset: {fileID: 0}
  m_GameObject: {fileID: 1075443708114866625}
  m_LocalRotation: {x: -0, y: -0, z: -0, w: 1}
  m_LocalPosition: {x: 0, y: 0, z: 0}
  m_LocalScale: {x: 1, y: 1, z: 1}
  m_Children:
  - {fileID: 7355578509861018824}
  - {fileID: 848855740199279561}
  m_Father: {fileID: 318468681705565082}
  m_RootOrder: 3
  m_LocalEulerAnglesHint: {x: 0, y: 0, z: 0}
  m_AnchorMin: {x: 0, y: 0}
  m_AnchorMax: {x: 1, y: 1}
  m_AnchoredPosition: {x: 0, y: 0}
  m_SizeDelta: {x: 0, y: 0}
  m_Pivot: {x: 0.5, y: 0.5}
--- !u!114 &380759997034901954
MonoBehaviour:
  m_ObjectHideFlags: 0
  m_CorrespondingSourceObject: {fileID: 0}
  m_PrefabInstance: {fileID: 0}
  m_PrefabAsset: {fileID: 0}
  m_GameObject: {fileID: 1075443708114866625}
  m_Enabled: 1
  m_EditorHideFlags: 0
  m_Script: {fileID: 11500000, guid: 30649d3a9faa99c48a7b1166b86bf2a0, type: 3}
  m_Name: 
  m_EditorClassIdentifier: 
  m_Padding:
    m_Left: 25
    m_Right: 25
    m_Top: 25
    m_Bottom: 25
  m_ChildAlignment: 3
  m_Spacing: 0
  m_ChildForceExpandWidth: 1
  m_ChildForceExpandHeight: 1
  m_ChildControlWidth: 0
  m_ChildControlHeight: 0
  m_ChildScaleWidth: 0
  m_ChildScaleHeight: 1
  m_ReverseArrangement: 0
--- !u!114 &6422302126489952227
MonoBehaviour:
  m_ObjectHideFlags: 0
  m_CorrespondingSourceObject: {fileID: 0}
  m_PrefabInstance: {fileID: 0}
  m_PrefabAsset: {fileID: 0}
  m_GameObject: {fileID: 1075443708114866625}
  m_Enabled: 1
  m_EditorHideFlags: 0
  m_Script: {fileID: 11500000, guid: 3245ec927659c4140ac4f8d17403cc18, type: 3}
  m_Name: 
  m_EditorClassIdentifier: 
  m_HorizontalFit: 0
  m_VerticalFit: 0
--- !u!1 &1836051129371671434
GameObject:
  m_ObjectHideFlags: 0
  m_CorrespondingSourceObject: {fileID: 0}
  m_PrefabInstance: {fileID: 0}
  m_PrefabAsset: {fileID: 0}
  serializedVersion: 6
  m_Component:
  - component: {fileID: 7355578509861018824}
  - component: {fileID: 3116854264852926457}
  - component: {fileID: 7923344962759906345}
  m_Layer: 5
  m_Name: Image
  m_TagString: Untagged
  m_Icon: {fileID: 0}
  m_NavMeshLayer: 0
  m_StaticEditorFlags: 0
  m_IsActive: 1
--- !u!224 &7355578509861018824
RectTransform:
  m_ObjectHideFlags: 0
  m_CorrespondingSourceObject: {fileID: 0}
  m_PrefabInstance: {fileID: 0}
  m_PrefabAsset: {fileID: 0}
  m_GameObject: {fileID: 1836051129371671434}
  m_LocalRotation: {x: -0, y: -0, z: -0, w: 1}
  m_LocalPosition: {x: 0, y: 0, z: 33.579666}
  m_LocalScale: {x: 1, y: 1, z: 1}
  m_Children: []
  m_Father: {fileID: 6283702868620723904}
  m_RootOrder: 0
  m_LocalEulerAnglesHint: {x: 0, y: 0, z: 0}
  m_AnchorMin: {x: 0, y: 0}
  m_AnchorMax: {x: 0, y: 0}
  m_AnchoredPosition: {x: 0, y: 0}
  m_SizeDelta: {x: 100, y: 100}
  m_Pivot: {x: 0.5, y: 0.5}
--- !u!222 &3116854264852926457
CanvasRenderer:
  m_ObjectHideFlags: 0
  m_CorrespondingSourceObject: {fileID: 0}
  m_PrefabInstance: {fileID: 0}
  m_PrefabAsset: {fileID: 0}
  m_GameObject: {fileID: 1836051129371671434}
  m_CullTransparentMesh: 1
--- !u!114 &7923344962759906345
MonoBehaviour:
  m_ObjectHideFlags: 0
  m_CorrespondingSourceObject: {fileID: 0}
  m_PrefabInstance: {fileID: 0}
  m_PrefabAsset: {fileID: 0}
  m_GameObject: {fileID: 1836051129371671434}
  m_Enabled: 1
  m_EditorHideFlags: 0
  m_Script: {fileID: 11500000, guid: fe87c0e1cc204ed48ad3b37840f39efc, type: 3}
  m_Name: 
  m_EditorClassIdentifier: 
  m_Material: {fileID: 0}
  m_Color: {r: 1, g: 1, b: 1, a: 1}
  m_RaycastTarget: 1
  m_RaycastPadding: {x: 0, y: 0, z: 0, w: 0}
  m_Maskable: 1
  m_OnCullStateChanged:
    m_PersistentCalls:
      m_Calls: []
  m_Sprite: {fileID: 21300000, guid: 008b32510990c0b47a3bc3c12402d9b0, type: 3}
  m_Type: 0
  m_PreserveAspect: 0
  m_FillCenter: 1
  m_FillMethod: 4
  m_FillAmount: 1
  m_FillClockwise: 1
  m_FillOrigin: 0
  m_UseSpriteMesh: 0
  m_PixelsPerUnitMultiplier: 1
--- !u!1 &4805922478361367152
GameObject:
  m_ObjectHideFlags: 0
  m_CorrespondingSourceObject: {fileID: 0}
  m_PrefabInstance: {fileID: 0}
  m_PrefabAsset: {fileID: 0}
  serializedVersion: 6
  m_Component:
  - component: {fileID: 848855740199279561}
  - component: {fileID: 1029357716398114824}
  - component: {fileID: 2209131133759903296}
  m_Layer: 5
  m_Name: Text
  m_TagString: Untagged
  m_Icon: {fileID: 0}
  m_NavMeshLayer: 0
  m_StaticEditorFlags: 0
  m_IsActive: 1
--- !u!224 &848855740199279561
RectTransform:
  m_ObjectHideFlags: 0
  m_CorrespondingSourceObject: {fileID: 0}
  m_PrefabInstance: {fileID: 0}
  m_PrefabAsset: {fileID: 0}
  m_GameObject: {fileID: 4805922478361367152}
  m_LocalRotation: {x: -0, y: -0, z: -0, w: 1}
  m_LocalPosition: {x: 0, y: 0, z: 33.579666}
  m_LocalScale: {x: 1, y: 1, z: 1}
  m_Children: []
  m_Father: {fileID: 6283702868620723904}
  m_RootOrder: 1
  m_LocalEulerAnglesHint: {x: 0, y: 0, z: 0}
  m_AnchorMin: {x: 0, y: 0}
  m_AnchorMax: {x: 0, y: 0}
  m_AnchoredPosition: {x: 0, y: 0}
  m_SizeDelta: {x: 350, y: 175}
  m_Pivot: {x: 0.5, y: 0.5}
--- !u!222 &1029357716398114824
CanvasRenderer:
  m_ObjectHideFlags: 0
  m_CorrespondingSourceObject: {fileID: 0}
  m_PrefabInstance: {fileID: 0}
  m_PrefabAsset: {fileID: 0}
  m_GameObject: {fileID: 4805922478361367152}
  m_CullTransparentMesh: 1
--- !u!114 &2209131133759903296
MonoBehaviour:
  m_ObjectHideFlags: 0
  m_CorrespondingSourceObject: {fileID: 0}
  m_PrefabInstance: {fileID: 0}
  m_PrefabAsset: {fileID: 0}
  m_GameObject: {fileID: 4805922478361367152}
  m_Enabled: 1
  m_EditorHideFlags: 0
  m_Script: {fileID: 11500000, guid: f4688fdb7df04437aeb418b961361dc5, type: 3}
  m_Name: 
  m_EditorClassIdentifier: 
  m_Material: {fileID: 0}
  m_Color: {r: 1, g: 1, b: 1, a: 1}
  m_RaycastTarget: 1
  m_RaycastPadding: {x: 0, y: 0, z: 0, w: 0}
  m_Maskable: 1
  m_OnCullStateChanged:
    m_PersistentCalls:
      m_Calls: []
  m_text: 
  m_isRightToLeft: 0
  m_fontAsset: {fileID: 11400000, guid: ac095a46274846c4eadd3a4dc1d8d26c, type: 2}
  m_sharedMaterial: {fileID: -4652824792558765969, guid: ac095a46274846c4eadd3a4dc1d8d26c, type: 2}
  m_fontSharedMaterials: []
  m_fontMaterial: {fileID: 0}
  m_fontMaterials: []
  m_fontColor32:
    serializedVersion: 2
    rgba: 4294967295
  m_fontColor: {r: 1, g: 1, b: 1, a: 1}
  m_enableVertexGradient: 0
  m_colorMode: 3
  m_fontColorGradient:
    topLeft: {r: 1, g: 1, b: 1, a: 1}
    topRight: {r: 1, g: 1, b: 1, a: 1}
    bottomLeft: {r: 1, g: 1, b: 1, a: 1}
    bottomRight: {r: 1, g: 1, b: 1, a: 1}
  m_fontColorGradientPreset: {fileID: 0}
  m_spriteAsset: {fileID: 0}
  m_tintAllSprites: 0
  m_StyleSheet: {fileID: 0}
  m_TextStyleHashCode: -1183493901
  m_overrideHtmlColors: 0
  m_faceColor:
    serializedVersion: 2
    rgba: 4294967295
  m_fontSize: 36
  m_fontSizeBase: 36
  m_fontWeight: 400
  m_enableAutoSizing: 1
  m_fontSizeMin: 18
  m_fontSizeMax: 72
  m_fontStyle: 0
  m_HorizontalAlignment: 2
  m_VerticalAlignment: 512
  m_textAlignment: 65535
  m_characterSpacing: 0
  m_wordSpacing: 0
  m_lineSpacing: 0
  m_lineSpacingMax: 0
  m_paragraphSpacing: 0
  m_charWidthMaxAdj: 0
  m_enableWordWrapping: 1
  m_wordWrappingRatios: 0.4
  m_overflowMode: 0
  m_linkedTextComponent: {fileID: 0}
  parentLinkedComponent: {fileID: 0}
  m_enableKerning: 1
  m_enableExtraPadding: 0
  checkPaddingRequired: 0
  m_isRichText: 1
  m_parseCtrlCharacters: 1
  m_isOrthographic: 1
  m_isCullingEnabled: 0
  m_horizontalMapping: 0
  m_verticalMapping: 0
  m_uvLineOffset: 0
  m_geometrySortingOrder: 0
  m_IsTextObjectScaleStatic: 0
  m_VertexBufferAutoSizeReduction: 0
  m_useMaxVisibleDescender: 1
  m_pageToDisplay: 1
  m_margin: {x: 20, y: 20, z: 20, w: 10}
  m_isUsingLegacyAnimationComponent: 0
  m_isVolumetricText: 0
  m_hasFontAssetChanged: 0
  m_baseMaterial: {fileID: 0}
  m_maskOffset: {x: 0, y: 0, z: 0, w: 0}
--- !u!1001 &2878926560178926653
PrefabInstance:
  m_ObjectHideFlags: 0
  serializedVersion: 2
  m_Modification:
    m_TransformParent: {fileID: 712160868216581400}
    m_Modifications:
    - target: {fileID: 230746581459167929, guid: df55f79b94cc34447b95586ff06db034, type: 3}
      propertyPath: m_Sprite
      value: 
      objectReference: {fileID: 21300000, guid: df125f2832be332429302b75cdb68cb0, type: 3}
    - target: {fileID: 230746581459167929, guid: df55f79b94cc34447b95586ff06db034, type: 3}
      propertyPath: m_Color.b
      value: 0.018066937
      objectReference: {fileID: 0}
    - target: {fileID: 230746581459167929, guid: df55f79b94cc34447b95586ff06db034, type: 3}
      propertyPath: m_Color.g
      value: 0.3378771
      objectReference: {fileID: 0}
    - target: {fileID: 230746581459167929, guid: df55f79b94cc34447b95586ff06db034, type: 3}
      propertyPath: m_Color.r
      value: 0.5471698
      objectReference: {fileID: 0}
    - target: {fileID: 978389500874696803, guid: df55f79b94cc34447b95586ff06db034, type: 3}
      propertyPath: m_Sprite
      value: 
      objectReference: {fileID: 21300000, guid: df125f2832be332429302b75cdb68cb0, type: 3}
    - target: {fileID: 978389500874696803, guid: df55f79b94cc34447b95586ff06db034, type: 3}
      propertyPath: m_Color.b
      value: 0.018066937
      objectReference: {fileID: 0}
    - target: {fileID: 978389500874696803, guid: df55f79b94cc34447b95586ff06db034, type: 3}
      propertyPath: m_Color.g
      value: 0.3378771
      objectReference: {fileID: 0}
    - target: {fileID: 978389500874696803, guid: df55f79b94cc34447b95586ff06db034, type: 3}
      propertyPath: m_Color.r
      value: 0.5471698
      objectReference: {fileID: 0}
    - target: {fileID: 978389500874696803, guid: df55f79b94cc34447b95586ff06db034, type: 3}
      propertyPath: m_PixelsPerUnitMultiplier
      value: 1
      objectReference: {fileID: 0}
    - target: {fileID: 1337421091554713221, guid: df55f79b94cc34447b95586ff06db034, type: 3}
      propertyPath: m_IsActive
      value: 0
      objectReference: {fileID: 0}
    - target: {fileID: 2566891122215575463, guid: df55f79b94cc34447b95586ff06db034, type: 3}
      propertyPath: m_SizeDelta.y
      value: 200
      objectReference: {fileID: 0}
    - target: {fileID: 2566891122215575463, guid: df55f79b94cc34447b95586ff06db034, type: 3}
      propertyPath: m_AnchoredPosition.x
      value: 1572
      objectReference: {fileID: 0}
    - target: {fileID: 2566891122215575463, guid: df55f79b94cc34447b95586ff06db034, type: 3}
      propertyPath: m_AnchoredPosition.y
      value: -728.1
      objectReference: {fileID: 0}
    - target: {fileID: 5267020184966362015, guid: df55f79b94cc34447b95586ff06db034, type: 3}
      propertyPath: m_SizeDelta.x
      value: 384.92
      objectReference: {fileID: 0}
    - target: {fileID: 5405506165559122764, guid: df55f79b94cc34447b95586ff06db034, type: 3}
      propertyPath: m_AnchorMax.x
      value: 1
      objectReference: {fileID: 0}
    - target: {fileID: 5405506165559122764, guid: df55f79b94cc34447b95586ff06db034, type: 3}
      propertyPath: m_AnchorMax.y
      value: 1
      objectReference: {fileID: 0}
    - target: {fileID: 5405506165559122764, guid: df55f79b94cc34447b95586ff06db034, type: 3}
      propertyPath: m_AnchorMin.x
      value: 0
      objectReference: {fileID: 0}
    - target: {fileID: 5405506165559122764, guid: df55f79b94cc34447b95586ff06db034, type: 3}
      propertyPath: m_AnchorMin.y
      value: 0
      objectReference: {fileID: 0}
    - target: {fileID: 5405506165559122764, guid: df55f79b94cc34447b95586ff06db034, type: 3}
      propertyPath: m_SizeDelta.x
      value: 0
      objectReference: {fileID: 0}
    - target: {fileID: 5405506165559122764, guid: df55f79b94cc34447b95586ff06db034, type: 3}
      propertyPath: m_SizeDelta.y
      value: 0
      objectReference: {fileID: 0}
    - target: {fileID: 6650235356814229220, guid: df55f79b94cc34447b95586ff06db034, type: 3}
      propertyPath: m_Pivot.x
      value: 0
      objectReference: {fileID: 0}
    - target: {fileID: 6650235356814229220, guid: df55f79b94cc34447b95586ff06db034, type: 3}
      propertyPath: m_Pivot.y
      value: 0
      objectReference: {fileID: 0}
    - target: {fileID: 6650235356814229220, guid: df55f79b94cc34447b95586ff06db034, type: 3}
      propertyPath: m_RootOrder
      value: 0
      objectReference: {fileID: 0}
    - target: {fileID: 6650235356814229220, guid: df55f79b94cc34447b95586ff06db034, type: 3}
      propertyPath: m_AnchorMax.x
      value: 0
      objectReference: {fileID: 0}
    - target: {fileID: 6650235356814229220, guid: df55f79b94cc34447b95586ff06db034, type: 3}
      propertyPath: m_AnchorMax.y
      value: 0
      objectReference: {fileID: 0}
    - target: {fileID: 6650235356814229220, guid: df55f79b94cc34447b95586ff06db034, type: 3}
      propertyPath: m_AnchorMin.x
      value: 0
      objectReference: {fileID: 0}
    - target: {fileID: 6650235356814229220, guid: df55f79b94cc34447b95586ff06db034, type: 3}
      propertyPath: m_AnchorMin.y
      value: 0
      objectReference: {fileID: 0}
    - target: {fileID: 6650235356814229220, guid: df55f79b94cc34447b95586ff06db034, type: 3}
      propertyPath: m_SizeDelta.x
      value: 0
      objectReference: {fileID: 0}
    - target: {fileID: 6650235356814229220, guid: df55f79b94cc34447b95586ff06db034, type: 3}
      propertyPath: m_SizeDelta.y
      value: 0
      objectReference: {fileID: 0}
    - target: {fileID: 6650235356814229220, guid: df55f79b94cc34447b95586ff06db034, type: 3}
      propertyPath: m_LocalPosition.x
      value: 0
      objectReference: {fileID: 0}
    - target: {fileID: 6650235356814229220, guid: df55f79b94cc34447b95586ff06db034, type: 3}
      propertyPath: m_LocalPosition.y
      value: 0
      objectReference: {fileID: 0}
    - target: {fileID: 6650235356814229220, guid: df55f79b94cc34447b95586ff06db034, type: 3}
      propertyPath: m_LocalPosition.z
      value: 0
      objectReference: {fileID: 0}
    - target: {fileID: 6650235356814229220, guid: df55f79b94cc34447b95586ff06db034, type: 3}
      propertyPath: m_LocalRotation.w
      value: 1
      objectReference: {fileID: 0}
    - target: {fileID: 6650235356814229220, guid: df55f79b94cc34447b95586ff06db034, type: 3}
      propertyPath: m_LocalRotation.x
      value: 0
      objectReference: {fileID: 0}
    - target: {fileID: 6650235356814229220, guid: df55f79b94cc34447b95586ff06db034, type: 3}
      propertyPath: m_LocalRotation.y
      value: 0
      objectReference: {fileID: 0}
    - target: {fileID: 6650235356814229220, guid: df55f79b94cc34447b95586ff06db034, type: 3}
      propertyPath: m_LocalRotation.z
      value: 0
      objectReference: {fileID: 0}
    - target: {fileID: 6650235356814229220, guid: df55f79b94cc34447b95586ff06db034, type: 3}
      propertyPath: m_AnchoredPosition.x
      value: 0
      objectReference: {fileID: 0}
    - target: {fileID: 6650235356814229220, guid: df55f79b94cc34447b95586ff06db034, type: 3}
      propertyPath: m_AnchoredPosition.y
      value: 0
      objectReference: {fileID: 0}
    - target: {fileID: 6650235356814229220, guid: df55f79b94cc34447b95586ff06db034, type: 3}
      propertyPath: m_LocalEulerAnglesHint.x
      value: 0
      objectReference: {fileID: 0}
    - target: {fileID: 6650235356814229220, guid: df55f79b94cc34447b95586ff06db034, type: 3}
      propertyPath: m_LocalEulerAnglesHint.y
      value: 0
      objectReference: {fileID: 0}
    - target: {fileID: 6650235356814229220, guid: df55f79b94cc34447b95586ff06db034, type: 3}
      propertyPath: m_LocalEulerAnglesHint.z
      value: 0
      objectReference: {fileID: 0}
    - target: {fileID: 8647159325823650400, guid: df55f79b94cc34447b95586ff06db034, type: 3}
      propertyPath: m_fontSize
      value: 15.2
      objectReference: {fileID: 0}
    - target: {fileID: 8647159325823650400, guid: df55f79b94cc34447b95586ff06db034, type: 3}
      propertyPath: m_fontAsset
      value: 
      objectReference: {fileID: 11400000, guid: b53b03be62ebcb244acd9483cb9ee085, type: 2}
    - target: {fileID: 8647159325823650400, guid: df55f79b94cc34447b95586ff06db034, type: 3}
      propertyPath: m_fontSizeMin
      value: 8
      objectReference: {fileID: 0}
    - target: {fileID: 8647159325823650400, guid: df55f79b94cc34447b95586ff06db034, type: 3}
      propertyPath: m_sharedMaterial
      value: 
      objectReference: {fileID: 845455216805466145, guid: b53b03be62ebcb244acd9483cb9ee085, type: 2}
    - target: {fileID: 8937664963318603802, guid: df55f79b94cc34447b95586ff06db034, type: 3}
      propertyPath: m_Name
      value: Window
      objectReference: {fileID: 0}
    m_RemovedComponents:
    - {fileID: 7146661272550309820, guid: df55f79b94cc34447b95586ff06db034, type: 3}
  m_SourcePrefab: {fileID: 100100000, guid: df55f79b94cc34447b95586ff06db034, type: 3}
--- !u!224 &8916671680420596441 stripped
RectTransform:
  m_CorrespondingSourceObject: {fileID: 6650235356814229220, guid: df55f79b94cc34447b95586ff06db034, type: 3}
  m_PrefabInstance: {fileID: 2878926560178926653}
  m_PrefabAsset: {fileID: 0}
--- !u!223 &1105516664052374395 stripped
Canvas:
  m_CorrespondingSourceObject: {fileID: 2928349077252550470, guid: df55f79b94cc34447b95586ff06db034, type: 3}
  m_PrefabInstance: {fileID: 2878926560178926653}
  m_PrefabAsset: {fileID: 0}
--- !u!224 &318468681705565082 stripped
RectTransform:
  m_CorrespondingSourceObject: {fileID: 2566891122215575463, guid: df55f79b94cc34447b95586ff06db034, type: 3}
  m_PrefabInstance: {fileID: 2878926560178926653}
  m_PrefabAsset: {fileID: 0}
--- !u!114 &6914399695444524637 stripped
MonoBehaviour:
  m_CorrespondingSourceObject: {fileID: 8647159325823650400, guid: df55f79b94cc34447b95586ff06db034, type: 3}
  m_PrefabInstance: {fileID: 2878926560178926653}
  m_PrefabAsset: {fileID: 0}
  m_GameObject: {fileID: 0}
  m_Enabled: 1
  m_EditorHideFlags: 0
  m_Script: {fileID: 11500000, guid: f4688fdb7df04437aeb418b961361dc5, type: 3}
  m_Name: 
  m_EditorClassIdentifier: 
