%YAML 1.1
%TAG !u! tag:unity3d.com,2011:
--- !u!114 &11400000
MonoBehaviour:
  m_ObjectHideFlags: 0
  m_CorrespondingSourceObject: {fileID: 0}
  m_PrefabInstance: {fileID: 0}
  m_PrefabAsset: {fileID: 0}
  m_GameObject: {fileID: 0}
  m_Enabled: 1
  m_EditorHideFlags: 0
  m_Script: {fileID: 11500000, guid: d16ae3b375afb034ba553dfc5a030915, type: 3}
  m_Name: Basic Sword
  m_EditorClassIdentifier: 
  itemID: e1dba46a-66b4-4c5e-93d7-26002480d481
  displayName: Basic Sword
  description: Forged from the finest iron.  Always remember to stick them with the
    pointy end.
  icon: {fileID: 21300000, guid: 3bf31b94b2dc2cf4cb37edf65d524aa2, type: 3}
  pickup: {fileID: 4567064183693155373, guid: 30b4bacafde30fe4a8f0cef5fc3d3a06, type: 3}
  stackable: 0
  level: 1
  droppable: 1
  category: 1
  price: 100
  drawOriginalInventory: 0
  toolbarStringArray:
  - Tooltip
  - Pickup
  - Weapon Model
  allowedEquipLocation: 5
  equipCondition:
    and: []
  additiveModifiers:
  - stat: 9
    amount: 7
  - stat: 24
    amount: 1
  percentageModifiers: []
  potentialModifiers: 1300000001000000
  statRequirements:
  - stat: 3
    level: 2
  defenseCharacteristics:
  - damageType: 5
    amount: 0
  weapon: {fileID: 798635579770225928, guid: 1309024d2c1afd343bbe7f24b2198576, type: 3}
  baseDamage: 9
  attackSpeed: 16
  attackVariants:
  - controller: {fileID: 22100000, guid: 30577f1dd141c544f98dbb9428c77c97, type: 2}
    intensity: 100
    weight: 36
  - controller: {fileID: 22100000, guid: b567e8eb2ecb8d8439c6c211108286f4, type: 2}
    intensity: 80
    weight: 10
  - controller: {fileID: 22100000, guid: feade64711b367e41aff0553060d0f99, type: 2}
    intensity: 110
    weight: 15
  - controller: {fileID: 22100000, guid: 3964e84fe7c71214c9f2cb437ae5af05, type: 2}
    intensity: 106
    weight: 2
  - controller: {fileID: 22100000, guid: 44a60c750af623e4b9f4a6c04a2a4059, type: 2}
    intensity: 172
    weight: 2
  - controller: {fileID: 22100000, guid: c29dd63adaf4ebe4693b5a8ac18471e8, type: 2}
    intensity: 200
    weight: 5
  - controller: {fileID: 22100000, guid: 3689450ec6255f1429bba2155bedb4a5, type: 2}
    intensity: 142
    weight: 5
  - controller: {fileID: 22100000, guid: a973dfef372fb9649b6b3dcabcc5d14c, type: 2}
    intensity: 64
    weight: 5
  leftHanded: 0
  characteristics:
  - damageType: 2
    amount: 1
