%YAML 1.1
%TAG !u! tag:unity3d.com,2011:
--- !u!221 &22100000
AnimatorOverrideController:
  m_ObjectHideFlags: 0
  m_CorrespondingSourceObject: {fileID: 0}
  m_PrefabInstance: {fileID: 0}
  m_PrefabAsset: {fileID: 0}
  m_Name: Unarmed-Attack-R2
  m_Controller: {fileID: 9100000, guid: c706068bc9bc948428d509d90eb07543, type: 2}
  m_Clips:
  - m_OriginalClip: {fileID: 7400000, guid: 95dc4fbaa01379f4f908847fb44054d4, type: 3}
    m_OverrideClip: {fileID: 7400000, guid: 8b4aea68a09b24149ab89408f7199bb1, type: 3}
