%YAML 1.1
%TAG !u! tag:unity3d.com,2011:
--- !u!114 &11400000
MonoBehaviour:
  m_ObjectHideFlags: 0
  m_CorrespondingSourceObject: {fileID: 0}
  m_PrefabInstance: {fileID: 0}
  m_PrefabAsset: {fileID: 0}
  m_GameObject: {fileID: 0}
  m_Enabled: 1
  m_EditorHideFlags: 0
  m_Script: {fileID: 11500000, guid: 4a4d89256e45d434796f1707e93be11c, type: 3}
  m_Name: G_S_Greaves
  m_EditorClassIdentifier: 
  itemID: 92a18e93-88f3-4d2b-85ba-153cfd69ee78
  displayName: Tin Greaves
  description: Welded plates of tin with flexible finger joints make these gloves
    a fine addition to your armor.
  icon: {fileID: 21300000, guid: 2b6d430d34c9c2b449194faf0ea0521f, type: 3}
  pickup: {fileID: 3090187485870497248, guid: 3711d79af0132394b8f26d950ac5f766, type: 3}
  stackable: 0
  level: 1
  droppable: 1
  category: 1
  price: 25
  drawOriginalInventory: 0
  toolbarStringArray:
  - Tooltip
  - Pickup
  - ArmorModel
  - Preview
  allowedEquipLocation: 7
  additiveModifiers:
  - stat: 9
    amount: 4
  - stat: 10
    amount: 2
  percentageModifiers: []
  potentialModifiers: 14000000090000001400000016000000
  statRequirements:
  - stat: 3
    level: 3
  defenseCharacteristics: []
  objectsToActivate:
  - category: Hand
    index: 3
  - category: LowerArm
    index: 3
  colorChanges:
  - category: _Color_Leather_Secondary
    color: {r: 0.69803923, g: 0.7490196, b: 0.76470596, a: 1}
  - category: _Color_Metal_Dark
    color: {r: 0.82745105, g: 0.8588236, b: 0.85098046, a: 1}
  - category: _Color_Leather_Primary
    color: {r: 0.65944284, g: 0.6886792, b: 0.68137014, a: 1}
  slotsToDeactivate: []
